Timestamp,Milliseconds,X,Y,Z
2020-03-25 12:39:42,0,-6.3896505E-4,-0.0014459181,0.0033444872
2020-03-25 12:39:42,101,-0.0018606954,9.975429E-4,9.0102624E-4
2020-03-25 12:39:42,200,0.0011936307,3.866777E-4,0.002733622
2020-03-25 12:39:42,300,-2.8099801E-5,-0.0014459181,0.0015118915
2020-03-25 12:39:42,400,5.8276544E-4,0.0016084082,0.0021227568
2020-03-25 12:39:42,500,-6.3896505E-4,-2.2418753E-4,0.0021227568
2020-03-25 12:39:42,600,5.8276544E-4,0.0022192732,2.9016097E-4
2020-03-25 12:39:42,700,-6.3896505E-4,0.0016084082,2.9016097E-4
2020-03-25 12:39:42,800,-6.3896505E-4,-0.0020567833,2.9016097E-4
2020-03-25 12:39:43,900,-0.0018606954,0.0016084082,-0.0015424347
2020-03-25 12:39:43,1001,0.0018044959,-2.2418753E-4,-3.2070425E-4
2020-03-25 12:39:43,1100,5.8276544E-4,3.866777E-4,-9.315695E-4
2020-03-25 12:39:43,1200,-6.3896505E-4,-2.2418753E-4,-3.2070425E-4
2020-03-25 12:39:43,1301,0.0018044959,0.0046627345,2.9016097E-4
2020-03-25 12:39:43,1400,-6.3896505E-4,-0.003889379,-3.2070425E-4
2020-03-25 12:39:43,1500,-6.3896505E-4,-0.0020567833,-9.315695E-4
2020-03-25 12:39:43,1600,-0.0024715606,3.866777E-4,9.0102624E-4
2020-03-25 12:39:43,1701,-0.0012498302,0.0028301387,-9.315695E-4
2020-03-25 12:39:43,1800,0.0011936307,0.0028301387,-3.2070425E-4
2020-03-25 12:39:44,1900,0.0018044959,-8.350528E-4,2.9016097E-4
2020-03-25 12:39:44,2000,-2.8099801E-5,-2.2418753E-4,2.9016097E-4
2020-03-25 12:39:44,2100,0.002415361,3.866777E-4,-3.2070425E-4
2020-03-25 12:39:44,2200,-0.003082426,9.975429E-4,-9.315695E-4
2020-03-25 12:39:44,2300,-0.0018606954,-2.2418753E-4,0.0015118915
2020-03-25 12:39:44,2401,-6.3896505E-4,-0.0020567833,2.9016097E-4
2020-03-25 12:39:44,2500,-0.004915022,3.866777E-4,2.9016097E-4
2020-03-25 12:39:44,2600,-0.0012498302,-2.2418753E-4,-0.0015424347
2020-03-25 12:39:44,2700,0.002415361,-8.350528E-4,-3.2070425E-4
2020-03-25 12:39:44,2800,0.0011936307,9.975429E-4,-0.0015424347
2020-03-25 12:39:45,2901,-0.003082426,-0.0020567833,2.9016097E-4
2020-03-25 12:39:45,3000,-2.8099801E-5,0.0022192732,2.9016097E-4
2020-03-25 12:39:45,3100,-2.8099801E-5,3.866777E-4,9.0102624E-4
2020-03-25 12:39:45,3201,0.0018044959,0.0022192732,-0.0021533
2020-03-25 12:39:45,3300,-0.0012498302,-0.0026676485,0.0021227568
2020-03-25 12:39:45,3400,-2.8099801E-5,0.003441004,-0.0015424347
2020-03-25 12:39:45,3500,-6.3896505E-4,3.866777E-4,0.0015118915
2020-03-25 12:39:45,3600,-2.8099801E-5,9.975429E-4,9.0102624E-4
2020-03-25 12:39:45,3700,0.004247957,0.0016084082,-9.315695E-4
2020-03-25 12:39:45,3801,-6.3896505E-4,-0.0020567833,-0.0021533
2020-03-25 12:39:46,3900,-0.0012498302,3.866777E-4,0.0015118915
2020-03-25 12:39:46,4000,0.002415361,3.866777E-4,2.9016097E-4
2020-03-25 12:39:46,4100,-0.0012498302,-0.0020567833,-9.315695E-4
2020-03-25 12:39:46,4201,5.8276544E-4,0.0028301387,-9.315695E-4
2020-03-25 12:39:46,4300,0.002415361,-0.0020567833,-9.315695E-4
2020-03-25 12:39:46,4400,0.0011936307,0.0046627345,-0.0015424347
2020-03-25 12:39:46,4500,-2.8099801E-5,0.0016084082,-0.0015424347
2020-03-25 12:39:46,4600,5.8276544E-4,-2.2418753E-4,-9.315695E-4
2020-03-25 12:39:46,4701,-2.8099801E-5,-0.0014459181,-9.315695E-4
2020-03-25 12:39:46,4800,-0.0024715606,9.975429E-4,9.0102624E-4
2020-03-25 12:39:47,4900,-6.3896505E-4,-0.0020567833,0.0015118915
2020-03-25 12:39:47,5000,0.0030262265,0.0022192732,-9.315695E-4
2020-03-25 12:39:47,5101,-6.3896505E-4,-8.350528E-4,0.0015118915
2020-03-25 12:39:47,5200,0.002415361,9.975429E-4,-0.0015424347
2020-03-25 12:39:47,5300,0.0011936307,-0.0020567833,9.0102624E-4
2020-03-25 12:39:47,5400,-0.0018606954,3.866777E-4,0.0015118915
2020-03-25 12:39:47,5500,-2.8099801E-5,0.0028301387,2.9016097E-4
2020-03-25 12:39:47,5600,5.8276544E-4,0.0022192732,-0.0027641652
2020-03-25 12:39:47,5701,-0.0018606954,3.866777E-4,2.9016097E-4
2020-03-25 12:39:47,5800,0.002415361,0.0028301387,-3.2070425E-4
2020-03-25 12:39:48,5900,-2.8099801E-5,3.866777E-4,2.9016097E-4
2020-03-25 12:39:48,6000,5.8276544E-4,-0.0020567833,0.0015118915
2020-03-25 12:39:48,6100,0.002415361,-0.0020567833,0.0015118915
2020-03-25 12:39:48,6200,5.8276544E-4,0.0022192732,-0.0015424347
2020-03-25 12:39:48,6300,0.0030262265,9.975429E-4,9.0102624E-4
2020-03-25 12:39:48,6400,-0.0018606954,3.866777E-4,-3.2070425E-4
2020-03-25 12:39:48,6500,-2.8099801E-5,0.0016084082,2.9016097E-4
2020-03-25 12:39:48,6600,-6.3896505E-4,-8.350528E-4,-0.0015424347
2020-03-25 12:39:48,6701,-0.0012498302,-2.2418753E-4,-3.2070425E-4
2020-03-25 12:39:48,6800,0.0011936307,9.975429E-4,2.9016097E-4
2020-03-25 12:39:49,6900,5.8276544E-4,-8.350528E-4,0.0033444872
2020-03-25 12:39:49,7000,0.0018044959,0.008327926,-3.2070425E-4
2020-03-25 12:39:49,7100,5.8276544E-4,-0.0020567833,-9.315695E-4
2020-03-25 12:39:49,7200,-0.0024715606,3.866777E-4,9.0102624E-4
2020-03-25 12:39:49,7301,0.0011936307,0.0028301387,0.0021227568
2020-03-25 12:39:49,7400,-2.8099801E-5,-0.0014459181,9.0102624E-4
2020-03-25 12:39:49,7500,0.0018044959,-0.0014459181,-3.2070425E-4
2020-03-25 12:39:49,7600,0.0011936307,0.0016084082,2.9016097E-4
2020-03-25 12:39:49,7700,0.0018044959,0.0016084082,9.0102624E-4
2020-03-25 12:39:49,7800,-3.0054568E-4,7.733554E-4,-4.5265115E-4
2020-03-25 12:39:50,7901,0.0021429153,0.0013842206,1.582141E-4
2020-03-25 12:39:50,8000,-0.0033548719,-0.0010592403,0.0013799446
2020-03-25 12:39:50,8100,0.0021429153,0.0026059512,-0.0028961122
2020-03-25 12:39:50,8200,-9.1141096E-4,-0.004724432,-0.0016743817
2020-03-25 12:39:50,8300,0.0021429153,-4.4837507E-4,0.0013799446
2020-03-25 12:39:50,8400,-3.0054568E-4,1.6249016E-4,1.582141E-4
2020-03-25 12:39:50,8501,0.0021429153,-0.0010592403,-4.5265115E-4
2020-03-25 12:39:50,8600,-0.0015222762,-0.0028918362,-0.0016743817
2020-03-25 12:39:50,8700,0.0027537807,-0.0022809708,0.0019908098
2020-03-25 12:39:50,8800,3.1031953E-4,1.6249016E-4,-0.0010635164
2020-03-25 12:39:51,8901,0.00153205,1.6249016E-4,-4.5265115E-4
2020-03-25 12:39:51,9000,3.1031953E-4,0.0026059512,-0.0016743817
2020-03-25 12:39:51,9100,-9.1141096E-4,1.6249016E-4,7.690793E-4
2020-03-25 12:39:51,9200,3.1031953E-4,-0.0022809708,-0.0022852467
2020-03-25 12:39:51,9301,-9.1141096E-4,7.733554E-4,7.690793E-4
2020-03-25 12:39:51,9400,9.211848E-4,0.0019950857,-4.5265115E-4
2020-03-25 12:39:51,9500,-9.1141096E-4,7.733554E-4,0.002601675
2020-03-25 12:39:51,9601,-3.0054568E-4,0.0019950857,0.0019908098
2020-03-25 12:39:51,9700,-0.0045766025,-0.0035027012,0.0019908098
2020-03-25 12:39:51,9800,-3.0054568E-4,7.733554E-4,-0.0022852467
2020-03-25 12:39:52,9900,-9.1141096E-4,-0.0010592403,-0.0022852467
2020-03-25 12:39:52,10000,0.0033646456,-0.0016701056,7.690793E-4
2020-03-25 12:39:52,10100,-0.0015222762,1.6249016E-4,1.582141E-4
2020-03-25 12:39:52,10201,-3.0054568E-4,7.733554E-4,1.582141E-4
2020-03-25 12:39:52,10300,3.1031953E-4,-0.0010592403,0.0013799446
2020-03-25 12:39:52,10400,9.211848E-4,-4.4837507E-4,-4.5265115E-4
2020-03-25 12:39:52,10500,-3.0054568E-4,7.733554E-4,-4.5265115E-4
2020-03-25 12:39:52,10600,-0.0021331415,-0.0028918362,0.0019908098
2020-03-25 12:39:52,10700,-9.1141096E-4,-0.0028918362,0.0013799446
2020-03-25 12:39:52,10800,-0.0015222762,-0.0010592403,-0.0010635164
2020-03-25 12:39:53,10900,-3.0054568E-4,-4.4837507E-4,7.690793E-4
2020-03-25 12:39:53,11000,3.1031953E-4,-0.0022809708,0.0013799446
2020-03-25 12:39:53,11100,-9.1141096E-4,0.0019950857,0.0019908098
2020-03-25 12:39:53,11200,3.1031953E-4,1.6249016E-4,1.582141E-4
2020-03-25 12:39:53,11300,-0.0015222762,-0.0010592403,-4.5265115E-4
2020-03-25 12:39:53,11400,-0.0021331415,0.0013842206,-0.0010635164
2020-03-25 12:39:53,11501,9.211848E-4,1.6249016E-4,7.690793E-4
2020-03-25 12:39:53,11600,0.0027537807,-4.4837507E-4,1.582141E-4
2020-03-25 12:39:53,11700,-9.1141096E-4,7.733554E-4,1.582141E-4
2020-03-25 12:39:53,11800,-0.0015222762,-4.4837507E-4,-0.0022852467
2020-03-25 12:39:54,11900,-0.0021331415,-0.0010592403,7.690793E-4
2020-03-25 12:39:54,12000,-3.0054568E-4,7.733554E-4,7.690793E-4
2020-03-25 12:39:54,12101,-3.0054568E-4,1.6249016E-4,-0.0010635164
2020-03-25 12:39:54,12200,-0.0021331415,7.733554E-4,-0.0022852467
2020-03-25 12:39:54,12300,-0.0015222762,-0.0016701056,-0.0022852467
2020-03-25 12:39:54,12400,9.211848E-4,-4.4837507E-4,-4.5265115E-4
2020-03-25 12:39:54,12500,-3.0054568E-4,-4.4837507E-4,0.0019908098
2020-03-25 12:39:54,12601,-9.1141096E-4,-4.4837507E-4,7.690793E-4
2020-03-25 12:39:54,12700,-9.1141096E-4,7.733554E-4,-4.5265115E-4
2020-03-25 12:39:54,12800,-9.1141096E-4,-0.0010592403,-0.0010635164
2020-03-25 12:39:55,12900,-0.0015222762,-4.4837507E-4,-0.0010635164
2020-03-25 12:39:55,13000,0.00153205,0.0026059512,0.0013799446
2020-03-25 12:39:55,13101,-9.1141096E-4,7.733554E-4,7.690793E-4
2020-03-25 12:39:55,13200,0.002081829,-0.0023084597,-4.5937067E-4
2020-03-25 12:39:55,13300,0.0026926938,-4.75864E-4,-0.001070236
2020-03-25 12:39:55,13400,8.600982E-4,0.0013567316,1.5149458E-4
2020-03-25 12:39:55,13500,-9.7249745E-4,0.0013567316,-0.001070236
2020-03-25 12:39:55,13600,-3.6163224E-4,0.0031893274,-4.5937067E-4
2020-03-25 12:39:55,13700,0.0014709635,0.0013567316,-0.0022919665
2020-03-25 12:39:55,13801,-0.002194228,-0.0010867293,-4.5937067E-4
2020-03-25 12:39:56,13900,0.005136155,-0.0023084597,1.5149458E-4
2020-03-25 12:39:56,14000,0.0026926938,0.0013567316,-4.5937067E-4
2020-03-25 12:39:56,14100,2.49233E-4,7.458665E-4,-0.0022919665
2020-03-25 12:39:56,14200,-0.0015833627,7.458665E-4,1.5149458E-4
2020-03-25 12:39:56,14300,-3.6163224E-4,0.001967597,1.5149458E-4
2020-03-25 12:39:56,14400,-0.0015833627,-0.0010867293,7.623598E-4
2020-03-25 12:39:56,14501,2.49233E-4,1.3500122E-4,0.0025949555
2020-03-25 12:39:56,14600,-0.0015833627,7.458665E-4,-0.0016811012
2020-03-25 12:39:56,14700,2.49233E-4,0.001967597,-0.001070236
2020-03-25 12:39:56,14801,0.002081829,0.002578462,7.623598E-4
2020-03-25 12:39:57,14900,0.0014709635,-0.0016975945,7.623598E-4
2020-03-25 12:39:57,15000,0.0014709635,-0.0010867293,7.623598E-4
2020-03-25 12:39:57,15100,-9.7249745E-4,0.001967597,-0.0022919665
2020-03-25 12:39:57,15200,-0.002194228,-0.0023084597,1.5149458E-4
2020-03-25 12:39:57,15300,0.0026926938,7.458665E-4,0.0013732251
2020-03-25 12:39:57,15400,-0.0034159585,7.458665E-4,7.623598E-4
2020-03-25 12:39:57,15500,2.49233E-4,0.001967597,0.0019840903
2020-03-25 12:39:57,15600,-0.002194228,7.458665E-4,0.0013732251
2020-03-25 12:39:57,15700,-0.0015833627,0.0013567316,7.623598E-4
2020-03-25 12:39:57,15800,8.600982E-4,-4.75864E-4,1.5149458E-4
2020-03-25 12:39:58,15900,-9.7249745E-4,7.458665E-4,-0.001070236
2020-03-25 12:39:58,16000,-0.0015833627,1.3500122E-4,1.5149458E-4
2020-03-25 12:39:58,16100,-3.6163224E-4,-0.0016975945,1.5149458E-4
2020-03-25 12:39:58,16201,0.0014709635,-4.75864E-4,-0.0022919665
2020-03-25 12:39:58,16300,-0.0015833627,0.0013567316,-0.0022919665
2020-03-25 12:39:58,16400,8.600982E-4,1.3500122E-4,7.623598E-4
2020-03-25 12:39:58,16500,0.0014709635,1.3500122E-4,-4.5937067E-4
2020-03-25 12:39:58,16600,-3.6163224E-4,1.3500122E-4,0.0032058207
2020-03-25 12:39:58,16700,2.49233E-4,0.0013567316,-4.5937067E-4
2020-03-25 12:39:58,16800,-3.6163224E-4,-0.0016975945,7.623598E-4
2020-03-25 12:39:59,16900,8.600982E-4,-4.75864E-4,0.0013732251
2020-03-25 12:39:59,17001,2.49233E-4,-0.0016975945,-0.0016811012
2020-03-25 12:39:59,17100,8.600982E-4,-4.75864E-4,7.623598E-4
2020-03-25 12:39:59,17200,0.0014709635,-4.75864E-4,1.5149458E-4
2020-03-25 12:39:59,17300,8.600982E-4,-4.75864E-4,7.623598E-4
2020-03-25 12:39:59,17400,8.600982E-4,-0.0016975945,7.623598E-4
2020-03-25 12:39:59,17500,-3.6163224E-4,0.0031893274,0.0013732251
2020-03-25 12:39:59,17600,8.600982E-4,-0.0016975945,-0.001070236
2020-03-25 12:39:59,17701,0.0014709635,7.458665E-4,-0.001070236
2020-03-25 12:39:59,17800,0.0014709635,0.0038001926,-0.0022919665
2020-03-25 12:40:00,17900,-9.7249745E-4,0.0013567316,-4.5937067E-4
2020-03-25 12:40:00,18000,2.49233E-4,-0.0010867293,7.623598E-4
2020-03-25 12:40:00,18101,-3.6163224E-4,0.005021923,-0.001070236
2020-03-25 12:40:00,18200,2.49233E-4,-4.75864E-4,-0.0022919665
2020-03-25 12:40:00,18300,8.600982E-4,7.458665E-4,-4.5937067E-4
2020-03-25 12:40:00,18400,-0.002194228,-4.75864E-4,1.5149458E-4
2020-03-25 12:40:00,18500,-9.7249745E-4,-0.0023084597,-4.5937067E-4
2020-03-25 12:40:00,18600,0.0017250834,-2.8893928E-4,1.7654007E-4
2020-03-25 12:40:00,18700,0.0023359486,-2.8893928E-4,1.7654007E-4
2020-03-25 12:40:00,18801,5.0335296E-4,3.21926E-4,-0.0010451905
2020-03-25 12:40:01,18900,-7.1837753E-4,3.21926E-4,-0.0010451905
2020-03-25 12:40:01,19000,5.0335296E-4,9.327912E-4,1.7654007E-4
2020-03-25 12:40:01,19100,-1.0751228E-4,0.0021545216,-0.0010451905
2020-03-25 12:40:01,19200,5.0335296E-4,3.21926E-4,1.7654007E-4
2020-03-25 12:40:01,19301,-1.0751228E-4,3.21926E-4,-4.343252E-4
2020-03-25 12:40:01,19400,-1.0751228E-4,3.21926E-4,7.874053E-4
2020-03-25 12:40:01,19500,5.0335296E-4,3.21926E-4,-4.343252E-4
2020-03-25 12:40:01,19600,0.0011142183,0.0015436565,-0.0010451905
2020-03-25 12:40:01,19700,-7.1837753E-4,3.21926E-4,7.874053E-4
2020-03-25 12:40:01,19800,0.0017250834,-2.8893928E-4,0.0013982705
2020-03-25 12:40:02,19900,-1.0751228E-4,-2.8893928E-4,-4.343252E-4
2020-03-25 12:40:02,20000,-0.002550973,-2.8893928E-4,7.874053E-4
2020-03-25 12:40:02,20100,-0.001940108,-0.0027324,0.0020091357
2020-03-25 12:40:02,20200,5.0335296E-4,3.21926E-4,-0.0010451905
2020-03-25 12:40:02,20300,0.002946814,-0.0033432655,7.874053E-4
2020-03-25 12:40:02,20400,0.0017250834,3.21926E-4,-4.343252E-4
2020-03-25 12:40:02,20501,0.0017250834,0.0015436565,-0.0016560557
2020-03-25 12:40:02,20600,0.0011142183,3.21926E-4,1.7654007E-4
2020-03-25 12:40:02,20700,-0.001940108,0.0015436565,1.7654007E-4
2020-03-25 12:40:02,20800,-7.1837753E-4,-0.0015106697,1.7654007E-4
2020-03-25 12:40:03,20900,-0.001940108,-0.0015106697,-4.343252E-4
2020-03-25 12:40:03,21000,-0.0013292428,9.327912E-4,-0.0010451905
2020-03-25 12:40:03,21101,-0.0013292428,-2.8893928E-4,1.7654007E-4
2020-03-25 12:40:03,21200,5.0335296E-4,-2.8893928E-4,-4.343252E-4
2020-03-25 12:40:03,21300,-1.0751228E-4,3.21926E-4,0.0020091357
2020-03-25 12:40:03,21400,5.0335296E-4,-0.0027324,7.874053E-4
2020-03-25 12:40:03,21500,-0.001940108,-8.998045E-4,-0.0010451905
2020-03-25 12:40:03,21600,-1.0751228E-4,-2.8893928E-4,0.002620001
2020-03-25 12:40:03,21700,5.0335296E-4,0.002765387,-4.343252E-4
2020-03-25 12:40:03,21800,0.0011142183,-2.8893928E-4,0.0013982705
2020-03-25 12:40:04,21900,0.0023359486,3.21926E-4,1.7654007E-4
2020-03-25 12:40:04,22000,0.0017250834,3.21926E-4,0.0020091357
2020-03-25 12:40:04,22100,0.0011142183,-2.8893928E-4,1.7654007E-4
2020-03-25 12:40:04,22200,0.0017250834,-2.8893928E-4,1.7654007E-4
2020-03-25 12:40:04,22301,5.0335296E-4,0.0015436565,0.0013982705
2020-03-25 12:40:04,22400,-0.0013292428,0.0021545216,7.874053E-4
2020-03-25 12:40:04,22500,-7.1837753E-4,-2.8893928E-4,-0.0016560557
2020-03-25 12:40:04,22600,-1.7837265E-4,0.0015687019,-3.604105E-4
2020-03-25 12:40:04,22700,4.3249258E-4,-2.6389377E-4,8.6132E-4
2020-03-25 12:40:04,22800,-1.7837265E-4,3.4697144E-4,8.6132E-4
2020-03-25 12:40:05,22900,-0.0026218335,-2.6389377E-4,-9.7127573E-4
2020-03-25 12:40:05,23001,-0.0014001031,0.0027904324,-9.7127573E-4
2020-03-25 12:40:05,23100,0.0010433579,0.0015687019,-3.604105E-4
2020-03-25 12:40:05,23200,-7.892379E-4,-0.0014856244,-3.604105E-4
2020-03-25 12:40:05,23300,4.3249258E-4,9.578367E-4,2.5045476E-4
2020-03-25 12:40:05,23400,0.0016542231,9.578367E-4,-0.0021930062
2020-03-25 12:40:05,23500,-7.892379E-4,0.0027904324,-0.0021930062
2020-03-25 12:40:05,23600,0.0022650883,0.0046230284,2.5045476E-4
2020-03-25 12:40:05,23701,4.3249258E-4,-0.0014856244,8.6132E-4
2020-03-25 12:40:05,23800,4.3249258E-4,9.578367E-4,-3.604105E-4
2020-03-25 12:40:06,23900,-1.7837265E-4,0.002179567,-0.0028038714
2020-03-25 12:40:06,24000,-0.0020109685,-8.7475905E-4,0.0014721852
2020-03-25 12:40:06,24101,-0.0014001031,-0.0020964895,8.6132E-4
2020-03-25 12:40:06,24200,-7.892379E-4,-0.00331822,-3.604105E-4
2020-03-25 12:40:06,24300,4.3249258E-4,-0.0014856244,2.5045476E-4
2020-03-25 12:40:06,24402,0.0010433579,-0.0020964895,2.5045476E-4
2020-03-25 12:40:06,24501,0.0010433579,-0.0020964895,-0.001582141
2020-03-25 12:40:06,24600,0.0016542231,3.4697144E-4,-3.604105E-4
2020-03-25 12:40:06,24700,-1.7837265E-4,-2.6389377E-4,-0.004025602
2020-03-25 12:40:06,24800,-7.892379E-4,-8.7475905E-4,-9.7127573E-4
2020-03-25 12:40:07,24900,-7.892379E-4,-2.6389377E-4,8.6132E-4
2020-03-25 12:40:07,25000,0.0010433579,0.0015687019,8.6132E-4
2020-03-25 12:40:07,25100,-7.892379E-4,0.0027904324,-9.7127573E-4
2020-03-25 12:40:07,25200,-0.0020109685,9.578367E-4,-3.604105E-4
2020-03-25 12:40:07,25300,0.0010433579,-2.6389377E-4,-3.604105E-4
2020-03-25 12:40:07,25400,0.0010433579,0.0027904324,0.0014721852
2020-03-25 12:40:07,25501,-7.892379E-4,0.002179567,-0.001582141
2020-03-25 12:40:07,25600,-7.892379E-4,-0.0014856244,0.0026939157
2020-03-25 12:40:07,25700,4.3249258E-4,0.002179567,-0.001582141
2020-03-25 12:40:07,25800,4.3249258E-4,3.4697144E-4,-3.604105E-4
2020-03-25 12:40:08,25900,4.3249258E-4,3.4697144E-4,2.5045476E-4
2020-03-25 12:40:08,26000,4.3249258E-4,3.4697144E-4,-9.7127573E-4
2020-03-25 12:40:08,26100,0.0010433579,-0.0027073547,0.0014721852
2020-03-25 12:40:08,26201,0.0016542231,3.4697144E-4,0.0020830506
2020-03-25 12:40:08,26300,-1.7837265E-4,-0.0014856244,-3.604105E-4
2020-03-25 12:40:08,26400,-7.892379E-4,0.0015687019,8.6132E-4
2020-03-25 12:40:08,26500,0.0016542231,3.4697144E-4,-9.7127573E-4
2020-03-25 12:40:08,26600,4.3249258E-4,-0.0014856244,0.0014721852
2020-03-25 12:40:08,26701,9.6577796E-4,-0.0015558738,-3.164282E-4
2020-03-25 12:40:08,26800,-0.003921144,-3.341433E-4,-3.164282E-4
2020-03-25 12:40:09,26900,3.5491268E-4,-3.341433E-4,-9.2729344E-4
2020-03-25 12:40:09,27000,-8.668178E-4,0.002720183,2.9443705E-4
2020-03-25 12:40:09,27100,0.0015766432,-0.0015558738,-0.0015381586
2020-03-25 12:40:09,27200,3.5491268E-4,2.7672196E-4,-0.002149024
2020-03-25 12:40:09,27301,3.5491268E-4,8.875872E-4,-0.0015381586
2020-03-25 12:40:09,27400,-2.5595253E-4,8.875872E-4,-0.002149024
2020-03-25 12:40:09,27500,-2.5595253E-4,-9.4500853E-4,0.0021270327
2020-03-25 12:40:09,27600,-0.0014776831,0.0021093178,-3.164282E-4
2020-03-25 12:40:09,27700,-8.668178E-4,8.875872E-4,2.9443705E-4
2020-03-25 12:40:09,27800,9.6577796E-4,2.7672196E-4,-3.164282E-4
2020-03-25 12:40:10,27901,-2.5595253E-4,0.0033310482,9.053023E-4
2020-03-25 12:40:10,28000,0.0027983738,-0.0015558738,0.0015161675
2020-03-25 12:40:10,28100,3.5491268E-4,-0.0039993348,-3.164282E-4
2020-03-25 12:40:10,28200,-2.5595253E-4,8.875872E-4,-0.0015381586
2020-03-25 12:40:10,28300,-2.5595253E-4,-9.4500853E-4,-3.164282E-4
2020-03-25 12:40:10,28400,9.6577796E-4,2.7672196E-4,0.0027378981
2020-03-25 12:40:10,28500,-2.5595253E-4,-0.0015558738,-0.0015381586
2020-03-25 12:40:10,28600,0.0027983738,0.0021093178,9.053023E-4
2020-03-25 12:40:10,28701,-0.0014776831,0.0014984524,-0.0015381586
2020-03-25 12:40:10,28800,0.0015766432,0.0021093178,-9.2729344E-4
2020-03-25 12:40:11,28900,0.0015766432,-9.4500853E-4,-3.164282E-4
2020-03-25 12:40:11,29000,3.5491268E-4,0.002720183,0.0015161675
2020-03-25 12:40:11,29100,0.0015766432,2.7672196E-4,-9.2729344E-4
2020-03-25 12:40:11,29200,-8.668178E-4,2.7672196E-4,0.0015161675
2020-03-25 12:40:11,29300,3.5491268E-4,-9.4500853E-4,2.9443705E-4
2020-03-25 12:40:11,29401,0.0027983738,8.875872E-4,9.053023E-4
2020-03-25 12:40:11,29500,-0.0014776831,0.0014984524,-0.0015381586
2020-03-25 12:40:11,29600,-0.0033102788,-0.002166739,-3.164282E-4
2020-03-25 12:40:11,29700,-2.5595253E-4,-0.0015558738,2.9443705E-4
2020-03-25 12:40:11,29800,0.0021875084,0.0014984524,0.0015161675
2020-03-25 12:40:12,29900,-8.668178E-4,8.875872E-4,2.9443705E-4
2020-03-25 12:40:12,30001,-0.0033102788,-0.0015558738,-9.2729344E-4
2020-03-25 12:40:12,30100,-0.0014776831,-9.4500853E-4,-0.0015381586
2020-03-25 12:40:12,30200,-0.0020885481,8.875872E-4,2.9443705E-4
2020-03-25 12:40:12,30300,0.0015766432,0.0033310482,2.9443705E-4
2020-03-25 12:40:12,30400,-8.668178E-4,0.0014984524,2.9443705E-4
2020-03-25 12:40:12,30500,-0.0014776831,-3.341433E-4,-9.2729344E-4
2020-03-25 12:40:12,30601,-2.5595253E-4,-3.341433E-4,-9.2729344E-4
2020-03-25 12:40:12,30700,-0.0026994136,8.875872E-4,-0.002149024
2020-03-25 12:40:12,30800,0.0033249394,-3.200934E-4,-0.0014709635
2020-03-25 12:40:13,30900,-0.0021728477,-0.0021526893,9.7249745E-4
2020-03-25 12:40:13,31000,2.7061332E-4,-3.200934E-4,9.7249745E-4
2020-03-25 12:40:13,31100,-3.4025195E-4,0.0015125023,-2.49233E-4
2020-03-25 12:40:13,31201,-0.0015619824,-0.0021526893,-8.600982E-4
2020-03-25 12:40:13,31300,2.7061332E-4,-0.0015418238,0.0015833627
2020-03-25 12:40:13,31400,-3.4025195E-4,2.9077183E-4,-0.0014709635
2020-03-25 12:40:13,31500,0.0014923437,-3.200934E-4,-2.49233E-4
2020-03-25 12:40:13,31600,0.0014923437,0.0021233675,-8.600982E-4
2020-03-25 12:40:13,31700,0.0014923437,-3.200934E-4,-2.49233E-4
2020-03-25 12:40:13,31801,8.8147854E-4,-0.0021526893,-0.0014709635
2020-03-25 12:40:14,31900,-3.4025195E-4,2.9077183E-4,3.6163224E-4
2020-03-25 12:40:14,32000,-0.0015619824,-9.309586E-4,9.7249745E-4
2020-03-25 12:40:14,32100,-0.0015619824,-0.0021526893,9.7249745E-4
2020-03-25 12:40:14,32200,8.8147854E-4,-9.309586E-4,-8.600982E-4
2020-03-25 12:40:14,32300,0.002103209,-3.200934E-4,9.7249745E-4
2020-03-25 12:40:14,32401,-0.0015619824,9.016371E-4,0.0015833627
2020-03-25 12:40:14,32500,-0.0015619824,2.9077183E-4,-0.002081829
2020-03-25 12:40:14,32600,-0.0015619824,2.9077183E-4,-0.002081829
2020-03-25 12:40:14,32700,0.0014923437,-3.200934E-4,0.0015833627
2020-03-25 12:40:14,32800,-0.0015619824,-0.0015418238,0.0015833627
2020-03-25 12:40:15,32901,-3.4025195E-4,-0.0015418238,0.0015833627
2020-03-25 12:40:15,33000,-0.0015619824,9.016371E-4,-0.002081829
2020-03-25 12:40:15,33100,-0.0015619824,-0.0015418238,-8.600982E-4
2020-03-25 12:40:15,33200,-0.0021728477,0.002734233,0.0028050933
2020-03-25 12:40:15,33301,-3.4025195E-4,-9.309586E-4,0.0034159585
2020-03-25 12:40:15,33400,-0.0021728477,-0.0027635542,-2.49233E-4
2020-03-25 12:40:15,33500,0.003935805,-9.309586E-4,3.6163224E-4
2020-03-25 12:40:15,33600,0.002103209,0.0021233675,-2.49233E-4
2020-03-25 12:40:15,33700,-3.4025195E-4,-9.309586E-4,-0.0014709635
2020-03-25 12:40:15,33800,-9.5111714E-4,-9.309586E-4,0.0015833627
2020-03-25 12:40:16,33901,0.002103209,9.016371E-4,-8.600982E-4
2020-03-25 12:40:16,34000,8.8147854E-4,9.016371E-4,-8.600982E-4
2020-03-25 12:40:16,34100,-9.5111714E-4,-0.0015418238,3.6163224E-4
2020-03-25 12:40:16,34200,-0.0015619824,9.016371E-4,0.0034159585
2020-03-25 12:40:16,34300,0.0014923437,-9.309586E-4,3.6163224E-4
2020-03-25 12:40:16,34400,-9.5111714E-4,9.016371E-4,0.002194228
2020-03-25 12:40:16,34501,-9.5111714E-4,-3.200934E-4,-2.49233E-4
2020-03-25 12:40:16,34600,-9.5111714E-4,9.016371E-4,-2.49233E-4
2020-03-25 12:40:16,34701,-9.5111714E-4,-0.0021526893,9.7249745E-4
2020-03-25 12:40:16,34800,0.0014923437,2.9077183E-4,-8.600982E-4
2020-03-25 12:40:17,34900,8.8147854E-4,-0.0033744196,-8.600982E-4
2020-03-25 12:40:17,35000,-9.5111714E-4,2.9077183E-4,-2.49233E-4
2020-03-25 12:40:17,35100,-9.5111714E-4,2.9077183E-4,-0.002081829
2020-03-25 12:40:17,35201,-3.4025195E-4,-3.200934E-4,3.6163224E-4
2020-03-25 12:40:17,35375,-3.4025195E-4,-3.200934E-4,3.6163224E-4
2020-03-25 12:40:17,35400,-3.4025195E-4,-3.200934E-4,3.6163224E-4
2020-03-25 12:40:17,35500,-0.0046163085,0.005788559,3.6163224E-4
2020-03-25 12:40:17,35600,-0.0015619824,-0.0021526893,9.7249745E-4
2020-03-25 12:40:17,35701,-0.002783713,-0.003985285,0.0015833627
2020-03-25 12:40:17,35800,-0.0015619824,-0.005817881,-2.49233E-4
2020-03-25 12:40:18,35900,2.7061332E-4,0.002734233,-8.600982E-4
2020-03-25 12:40:18,36000,-9.5111714E-4,-0.0015418238,-8.600982E-4
2020-03-25 12:40:18,36100,2.7061332E-4,9.016371E-4,-8.600982E-4
2020-03-25 12:40:18,36200,-3.4025195E-4,-3.200934E-4,9.7249745E-4
2020-03-25 12:40:18,36300,0.002103209,9.016371E-4,-8.600982E-4
2020-03-25 12:40:18,36400,-0.005838039,0.0015125023,3.6163224E-4
2020-03-25 12:40:18,36500,0.005157535,-9.309586E-4,3.6163224E-4
2020-03-25 12:40:18,36600,8.8147854E-4,2.9077183E-4,-0.0014709635
2020-03-25 12:40:18,36700,2.7061332E-4,2.9077183E-4,-8.600982E-4
2020-03-25 12:40:18,36800,-0.009503231,9.016371E-4,-8.600982E-4
2020-03-25 12:40:19,36900,-3.4025195E-4,0.0021233675,-2.49233E-4
2020-03-25 12:40:19,37000,-9.5111714E-4,-0.0015418238,0.0015833627
2020-03-25 12:40:19,37101,2.7061332E-4,0.0021233675,-0.0014709635
2020-03-25 12:40:19,37200,-3.4025195E-4,2.9077183E-4,9.7249745E-4
2020-03-25 12:40:19,37300,2.7061332E-4,0.0021233675,-0.002081829
2020-03-25 12:40:19,37400,8.8147854E-4,0.0021233675,-2.49233E-4
2020-03-25 12:40:19,37501,-3.4025195E-4,0.0015125023,-8.600982E-4
2020-03-25 12:40:23,40910,-3.4025195E-4,0.0015125023,-8.600982E-4
2020-03-25 12:40:23,40910,-3.4025195E-4,0.0015125023,-8.600982E-4
2020-03-25 12:40:23,40910,-3.4025195E-4,0.0015125023,-8.600982E-4
2020-03-25 12:40:23,40910,-3.4025195E-4,0.0015125023,-8.600982E-4
2020-03-25 12:40:23,40910,-3.4025195E-4,0.0015125023,-8.600982E-4
2020-03-25 12:40:23,40910,-3.4025195E-4,0.0015125023,-8.600982E-4
2020-03-25 12:40:23,40910,-3.4025195E-4,0.0015125023,-8.600982E-4
2020-03-25 12:40:23,40910,-3.4025195E-4,0.0015125023,-8.600982E-4
2020-03-25 12:40:23,40910,-3.4025195E-4,0.0015125023,-8.600982E-4
2020-03-25 12:40:23,40910,-3.4025195E-4,0.0015125023,-8.600982E-4
2020-03-25 12:40:23,40910,-3.4025195E-4,0.0015125023,-8.600982E-4
2020-03-25 12:40:23,40910,-3.4025195E-4,0.0015125023,-8.600982E-4
2020-03-25 12:40:23,40910,-3.4025195E-4,0.0015125023,-8.600982E-4
2020-03-25 12:40:23,40910,-3.4025195E-4,0.0015125023,-8.600982E-4
2020-03-25 12:40:23,40910,-3.4025195E-4,0.0015125023,-8.600982E-4
2020-03-25 12:40:23,40910,-3.4025195E-4,0.0015125023,-8.600982E-4
2020-03-25 12:40:23,40910,-3.4025195E-4,0.0015125023,-8.600982E-4
2020-03-25 12:40:23,40910,-3.4025195E-4,0.0015125023,-8.600982E-4
2020-03-25 12:40:23,40910,-3.4025195E-4,0.0015125023,-8.600982E-4
2020-03-25 12:40:23,40910,-3.4025195E-4,0.0015125023,-8.600982E-4
2020-03-25 12:40:23,40910,-3.4025195E-4,0.0015125023,-8.600982E-4
2020-03-25 12:40:23,40910,-3.4025195E-4,0.0015125023,-8.600982E-4
2020-03-25 12:40:23,40910,-3.4025195E-4,0.0015125023,-8.600982E-4
2020-03-25 12:40:23,40910,-3.4025195E-4,0.0015125023,-8.600982E-4
2020-03-25 12:40:23,40910,-3.4025195E-4,0.0015125023,-8.600982E-4
2020-03-25 12:40:23,40910,-3.4025195E-4,0.0015125023,-8.600982E-4
2020-03-25 12:40:23,40910,-3.4025195E-4,0.0015125023,-8.600982E-4
2020-03-25 12:40:23,40910,-3.4025195E-4,0.0015125023,-8.600982E-4
2020-03-25 12:40:23,40910,-3.4025195E-4,0.0015125023,-8.600982E-4
2020-03-25 12:40:23,40910,-3.4025195E-4,0.0015125023,-8.600982E-4
2020-03-25 12:40:23,40910,-3.4025195E-4,0.0015125023,-8.600982E-4
2020-03-25 12:40:23,40910,-3.4025195E-4,0.0015125023,-8.600982E-4
2020-03-25 12:40:23,40910,-3.4025195E-4,0.0015125023,-8.600982E-4
2020-03-25 12:40:23,40910,-3.4025195E-4,0.0015125023,-8.600982E-4
2020-03-25 12:40:23,41000,-0.09930042,1.0448704,0.0431222
2020-03-25 12:40:23,41100,-0.013779287,0.9752317,-0.013688269
2020-03-25 12:40:23,41201,0.006990131,0.6166538,-0.010633943
2020-03-25 12:40:23,41300,-0.029050918,0.7620397,9.7249745E-4
2020-03-25 12:40:23,41400,-0.022942267,0.9349146,-0.012466538
2020-03-25 12:40:23,41500,-0.03271611,1.0668614,0.044954795
2020-03-25 12:40:23,41600,0.0033249394,0.71439224,-0.0075796163
2020-03-25 12:40:23,41701,-0.019277075,0.1982111,9.7249745E-4
2020-03-25 12:40:23,41800,-0.0015619824,0.21103927,-0.0033035593
2020-03-25 12:40:24,41900,-0.002783713,0.23913908,-0.002081829
2020-03-25 12:40:24,42000,-0.002783713,0.15728314,-0.0014709635
2020-03-25 12:40:24,42100,-0.0015619824,-0.029030759,0.002194228
2020-03-25 12:40:24,42201,-0.0070597697,0.08153585,-0.0014709635
2020-03-25 12:40:28,46275,-9.5111714E-4,0.05832297,-0.0026926938
2020-03-25 12:40:28,46275,-9.5111714E-4,0.05832297,-0.0026926938
2020-03-25 12:40:28,46275,-9.5111714E-4,0.05832297,-0.0026926938
2020-03-25 12:40:28,46275,-9.5111714E-4,0.05832297,-0.0026926938
2020-03-25 12:40:28,46275,-9.5111714E-4,0.05832297,-0.0026926938
2020-03-25 12:40:28,46275,-9.5111714E-4,0.05832297,-0.0026926938
2020-03-25 12:40:28,46275,-9.5111714E-4,0.05832297,-0.0026926938
2020-03-25 12:40:28,46275,-9.5111714E-4,0.05832297,-0.0026926938
2020-03-25 12:40:28,46275,-9.5111714E-4,0.05832297,-0.0026926938
2020-03-25 12:40:28,46275,-9.5111714E-4,0.05832297,-0.0026926938
2020-03-25 12:40:28,46275,-9.5111714E-4,0.05832297,-0.0026926938
2020-03-25 12:40:28,46275,-9.5111714E-4,0.05832297,-0.0026926938
2020-03-25 12:40:28,46275,-9.5111714E-4,0.05832297,-0.0026926938
2020-03-25 12:40:28,46275,-9.5111714E-4,0.05832297,-0.0026926938
2020-03-25 12:40:28,46275,-9.5111714E-4,0.05832297,-0.0026926938
2020-03-25 12:40:28,46275,-9.5111714E-4,0.05832297,-0.0026926938
2020-03-25 12:40:28,46275,-9.5111714E-4,0.05832297,-0.0026926938
2020-03-25 12:40:28,46275,-9.5111714E-4,0.05832297,-0.0026926938
2020-03-25 12:40:28,46276,-9.5111714E-4,0.05832297,-0.0026926938
2020-03-25 12:40:28,46276,-9.5111714E-4,0.05832297,-0.0026926938
2020-03-25 12:40:28,46276,-9.5111714E-4,0.05832297,-0.0026926938
2020-03-25 12:40:28,46276,-9.5111714E-4,0.05832297,-0.0026926938
2020-03-25 12:40:28,46276,-9.5111714E-4,0.05832297,-0.0026926938
2020-03-25 12:40:28,46276,-9.5111714E-4,0.05832297,-0.0026926938
2020-03-25 12:40:28,46276,-9.5111714E-4,0.05832297,-0.0026926938
2020-03-25 12:40:28,46276,-9.5111714E-4,0.05832297,-0.0026926938
2020-03-25 12:40:28,46276,-9.5111714E-4,0.05832297,-0.0026926938
2020-03-25 12:40:28,46276,-9.5111714E-4,0.05832297,-0.0026926938
2020-03-25 12:40:28,46276,-9.5111714E-4,0.05832297,-0.0026926938
2020-03-25 12:40:28,46276,-9.5111714E-4,0.05832297,-0.0026926938
2020-03-25 12:40:28,46276,-9.5111714E-4,0.05832297,-0.0026926938
2020-03-25 12:40:28,46276,-9.5111714E-4,0.05832297,-0.0026926938
2020-03-25 12:40:28,46276,-9.5111714E-4,0.05832297,-0.0026926938
2020-03-25 12:40:28,46276,-9.5111714E-4,0.05832297,-0.0026926938
2020-03-25 12:40:28,46276,-9.5111714E-4,0.05832297,-0.0026926938
2020-03-25 12:40:28,46276,-9.5111714E-4,0.05832297,-0.0026926938
2020-03-25 12:40:28,46276,-9.5111714E-4,0.05832297,-0.0026926938
2020-03-25 12:40:28,46276,-9.5111714E-4,0.05832297,-0.0026926938
2020-03-25 12:40:28,46276,-9.5111714E-4,0.05832297,-0.0026926938
2020-03-25 12:40:28,46276,-9.5111714E-4,0.05832297,-0.0026926938
2020-03-25 12:40:28,46300,0.07174184,0.07176201,0.002194228
2020-03-25 12:40:28,46400,-0.004005444,-0.019256916,0.0015833627
2020-03-25 12:40:28,46500,-0.026607458,-0.0052070157,3.6163224E-4
2020-03-25 12:40:28,46600,-0.041879088,-0.024754703,0.002194228
2020-03-25 12:40:28,46700,-0.0046163085,-0.025976432,0.002194228
2020-03-25 12:40:28,46801,8.8147854E-4,0.0039559635,0.0028050933
2020-03-25 12:40:29,46900,8.8147854E-4,0.0070102895,-2.49233E-4
2020-03-25 12:40:29,47000,0.0027140744,0.010675481,3.6163224E-4
2020-03-25 12:40:29,47100,8.8147854E-4,-3.200934E-4,0.0028050933
2020-03-25 12:40:29,47200,0.0033249394,9.016371E-4,9.7249745E-4
2020-03-25 12:40:29,47301,0.0027140744,-0.0015418238,-0.0014709635
2020-03-25 12:40:29,47400,-9.5111714E-4,-0.0076504764,0.0015833627
2020-03-25 12:40:29,47500,-0.008892366,-0.0064287456,0.002194228
2020-03-25 12:40:29,47601,-0.025385726,-0.047356717,0.0064702844
2020-03-25 12:40:29,47700,-0.013168422,-0.024754703,0.005248554
2020-03-25 12:40:29,47800,-0.0021728477,-0.0052070157,9.7249745E-4
2020-03-25 12:40:30,47900,-3.4025195E-4,0.002734233,-2.49233E-4
2020-03-25 12:40:30,48000,2.7061332E-4,0.0015125023,3.6163224E-4
2020-03-25 12:40:30,48101,-0.004005444,-0.0076504764,0.0015833627
2020-03-25 12:40:30,48200,0.002103209,-0.003985285,9.7249745E-4
2020-03-25 12:40:30,48333,0.002103209,-0.003985285,9.7249745E-4
2020-03-25 12:40:30,48400,0.002103209,-0.003985285,9.7249745E-4
2020-03-25 12:40:30,48501,-0.0033945781,-0.025365569,0.0028050933
2020-03-25 12:40:30,48600,-0.002783713,-0.022922108,0.0028050933
2020-03-25 12:40:30,48700,8.8147854E-4,-0.0070396108,0.0015833627
2020-03-25 12:40:30,48800,2.7061332E-4,0.0045668287,3.6163224E-4
2020-03-25 12:40:31,48900,0.00454667,-0.0033744196,3.6163224E-4
2020-03-25 12:40:31,49001,0.0033249394,-0.003985285,3.6163224E-4
2020-03-25 12:40:31,49100,8.8147854E-4,-0.015591725,-2.49233E-4
2020-03-25 12:40:31,49200,2.7061332E-4,0.003345098,-0.0014709635
2020-03-25 12:40:31,49300,-3.4025195E-4,0.00945375,3.6163224E-4
2020-03-25 12:40:31,49400,0.002103209,0.017394999,-2.49233E-4
2020-03-25 12:40:31,49500,0.002103209,0.0063994243,-8.600982E-4
2020-03-25 12:40:31,49600,0.0057684006,0.003345098,-2.49233E-4
2020-03-25 12:40:31,49701,0.003935805,0.048549127,-0.005136155
2020-03-25 12:40:31,49801,-0.009503231,0.0015125023,-0.0014709635
2020-03-25 12:40:32,49900,-3.4025195E-4,-0.0064287456,9.7249745E-4
2020-03-25 12:40:32,50001,0.002103209,-0.008872206,0.0028050933
2020-03-25 12:40:32,50100,0.00454667,-0.008261342,3.6163224E-4
2020-03-25 12:40:32,50200,0.0027140744,-0.010704802,-2.49233E-4
2020-03-25 12:40:32,50300,-3.4025195E-4,-0.038804602,-0.0075796163
2020-03-25 12:40:32,50400,8.8147854E-4,-0.0070396108,0.0015833627
2020-03-25 12:40:32,50501,-0.0015619824,-3.200934E-4,0.002194228
2020-03-25 12:40:32,50600,0.0014923437,0.013118942,-2.49233E-4
2020-03-25 12:40:32,50700,-3.4025195E-4,0.013729807,-0.0014709635
2020-03-25 12:40:32,50801,-0.0046163085,-9.309586E-4,-2.49233E-4
2020-03-25 12:40:33,50900,0.005157535,-0.0027635542,-2.49233E-4
2020-03-25 12:40:33,51000,0.013709649,-0.032085087,-8.600982E-4
2020-03-25 12:40:33,51100,0.017985707,-0.01620259,9.7249745E-4
2020-03-25 12:40:33,51201,0.011266188,-0.013148264,3.6163224E-4
2020-03-25 12:40:33,51300,-0.0015619824,0.012508077,-0.002081829
2020-03-25 12:40:33,51401,-0.0015619824,0.026557978,-8.600982E-4
2020-03-25 12:40:33,51500,8.8147854E-4,0.011897211,-0.0014709635
2020-03-25 12:40:33,51600,0.027148683,-9.309586E-4,-8.600982E-4
2020-03-25 12:40:33,51700,0.019207435,-0.023532972,9.7249745E-4
2020-03-25 12:40:33,51801,0.00454667,-0.009483072,9.7249745E-4
2020-03-25 12:40:34,51900,2.7061332E-4,0.066875085,-8.600982E-4
2020-03-25 12:40:34,52001,0.0027140744,0.0039559635,-2.49233E-4
2020-03-25 12:40:34,52100,0.002103209,0.0015125023,0.0015833627
2020-03-25 12:40:34,52200,-3.4025195E-4,0.008842885,-2.49233E-4
2020-03-25 12:40:34,52300,-3.4025195E-4,0.005177694,-2.49233E-4
2020-03-25 12:40:34,52400,-0.0015619824,9.016371E-4,3.6163224E-4
2020-03-25 12:40:34,52500,0.002103209,0.012508077,-0.0014709635
2020-03-25 12:40:34,52600,0.003935805,0.01983846,-8.600982E-4
2020-03-25 12:40:34,52700,-3.4025195E-4,-0.008261342,-2.49233E-4
2020-03-25 12:40:34,52801,-0.0033945781,-3.200934E-4,-0.0026926938
2020-03-25 12:40:35,52900,0.003935805,0.021060191,-0.0014709635
2020-03-25 12:40:35,53000,0.13710444,-0.12432574,0.0046376893
2020-03-25 12:40:35,53100,0.043642044,-0.016813455,-0.0057470202
2020-03-25 12:40:35,53202,-3.4025195E-4,0.011286346,-0.0026926938
2020-03-25 12:40:35,53300,-0.020498805,0.054046914,-0.02651644
2020-03-25 12:40:35,53400,-0.033326976,0.011897211,-0.0063578854
2020-03-25 12:40:35,53500,8.8147854E-4,-0.0052070157,-0.0033035593
2020-03-25 12:40:35,53600,0.0027140744,-0.015591725,-0.0045252894
2020-03-25 12:40:35,53700,-9.5111714E-4,0.017394999,-0.0014709635
2020-03-25 12:40:38,56765,0.0014923437,0.0045668287,9.7249745E-4
2020-03-25 12:40:38,56765,0.0014923437,0.0045668287,9.7249745E-4
2020-03-25 12:40:38,56765,0.0014923437,0.0045668287,9.7249745E-4
2020-03-25 12:40:38,56765,0.0014923437,0.0045668287,9.7249745E-4
2020-03-25 12:40:38,56765,0.0014923437,0.0045668287,9.7249745E-4
2020-03-25 12:40:38,56765,0.0014923437,0.0045668287,9.7249745E-4
2020-03-25 12:40:38,56765,0.0014923437,0.0045668287,9.7249745E-4
2020-03-25 12:40:38,56765,0.0014923437,0.0045668287,9.7249745E-4
2020-03-25 12:40:38,56765,0.0014923437,0.0045668287,9.7249745E-4
2020-03-25 12:40:38,56765,0.0014923437,0.0045668287,9.7249745E-4
2020-03-25 12:40:38,56765,0.0014923437,0.0045668287,9.7249745E-4
2020-03-25 12:40:38,56765,0.0014923437,0.0045668287,9.7249745E-4
2020-03-25 12:40:38,56765,0.0014923437,0.0045668287,9.7249745E-4
2020-03-25 12:40:38,56765,0.0014923437,0.0045668287,9.7249745E-4
2020-03-25 12:40:38,56765,0.0014923437,0.0045668287,9.7249745E-4
2020-03-25 12:40:38,56765,0.0014923437,0.0045668287,9.7249745E-4
2020-03-25 12:40:38,56765,0.0014923437,0.0045668287,9.7249745E-4
2020-03-25 12:40:38,56765,0.0014923437,0.0045668287,9.7249745E-4
2020-03-25 12:40:38,56765,0.0014923437,0.0045668287,9.7249745E-4
2020-03-25 12:40:38,56765,0.0014923437,0.0045668287,9.7249745E-4
2020-03-25 12:40:38,56765,0.0014923437,0.0045668287,9.7249745E-4
2020-03-25 12:40:38,56765,0.0014923437,0.0045668287,9.7249745E-4
2020-03-25 12:40:38,56765,0.0014923437,0.0045668287,9.7249745E-4
2020-03-25 12:40:38,56765,0.0014923437,0.0045668287,9.7249745E-4
2020-03-25 12:40:38,56765,0.0014923437,0.0045668287,9.7249745E-4
2020-03-25 12:40:38,56765,0.0014923437,0.0045668287,9.7249745E-4
2020-03-25 12:40:38,56765,0.0014923437,0.0045668287,9.7249745E-4
2020-03-25 12:40:38,56765,0.0014923437,0.0045668287,9.7249745E-4
2020-03-25 12:40:38,56765,0.0014923437,0.0045668287,9.7249745E-4
2020-03-25 12:40:38,56765,0.0014923437,0.0045668287,9.7249745E-4
2020-03-25 12:40:38,56800,-9.5111714E-4,0.029612303,-0.002081829
2020-03-25 12:40:39,56900,0.0014923437,0.06443162,-2.49233E-4
2020-03-25 12:40:39,57001,-3.4025195E-4,0.10597046,-0.0026926938
2020-03-25 12:40:39,57100,0.07907223,-0.6460046,0.0040268237
2020-03-25 12:40:39,57200,-0.0021728477,-0.008261342,-0.0014709635
2020-03-25 12:40:39,57300,0.002103209,0.028390573,-2.49233E-4
2020-03-25 12:40:39,57400,0.003935805,0.13284853,-0.003914424
2020-03-25 12:40:39,57501,-0.0033945781,0.15056363,-8.600982E-4
2020-03-25 12:40:39,57600,-0.0033945781,0.13101593,3.6163224E-4
2020-03-25 12:40:39,57700,-3.4025195E-4,0.115133435,-0.002081829
2020-03-25 12:40:39,57800,-3.4025195E-4,0.06809682,-0.0033035593
2020-03-25 12:40:40,57900,-3.4025195E-4,0.027779708,0.002194228
2020-03-25 12:40:40,58001,-9.5111714E-4,0.030223168,-8.600982E-4
2020-03-25 12:40:40,58100,0.0027140744,0.010064616,0.0015833627
2020-03-25 12:40:40,58200,-0.0015619824,0.027779708,-2.49233E-4
2020-03-25 12:40:40,58300,-9.5111714E-4,0.025336247,9.7249745E-4
2020-03-25 12:40:40,58400,0.023483492,-0.57025737,0.0076920153
2020-03-25 12:40:40,58501,0.0014923437,0.010675481,9.7249745E-4
2020-03-25 12:40:40,58600,0.0027140744,2.9077183E-4,-0.0014709635
2020-03-25 12:40:44,61874,0.0027140744,2.9077183E-4,-0.0014709635
2020-03-25 12:40:44,61874,0.0027140744,2.9077183E-4,-0.0014709635
2020-03-25 12:40:44,61874,0.0027140744,2.9077183E-4,-0.0014709635
2020-03-25 12:40:44,61874,0.0027140744,2.9077183E-4,-0.0014709635
2020-03-25 12:40:44,61874,0.0027140744,2.9077183E-4,-0.0014709635
2020-03-25 12:40:44,61874,0.0027140744,2.9077183E-4,-0.0014709635
2020-03-25 12:40:44,61874,0.0027140744,2.9077183E-4,-0.0014709635
2020-03-25 12:40:44,61874,0.0027140744,2.9077183E-4,-0.0014709635
2020-03-25 12:40:44,61874,0.0027140744,2.9077183E-4,-0.0014709635
2020-03-25 12:40:44,61874,0.0027140744,2.9077183E-4,-0.0014709635
2020-03-25 12:40:44,61874,0.0027140744,2.9077183E-4,-0.0014709635
2020-03-25 12:40:44,61874,0.0027140744,2.9077183E-4,-0.0014709635
2020-03-25 12:40:44,61874,0.0027140744,2.9077183E-4,-0.0014709635
2020-03-25 12:40:44,61874,0.0027140744,2.9077183E-4,-0.0014709635
2020-03-25 12:40:44,61874,0.0027140744,2.9077183E-4,-0.0014709635
2020-03-25 12:40:44,61874,0.0027140744,2.9077183E-4,-0.0014709635
2020-03-25 12:40:44,61874,0.0027140744,2.9077183E-4,-0.0014709635
2020-03-25 12:40:44,61874,0.0027140744,2.9077183E-4,-0.0014709635
2020-03-25 12:40:44,61874,0.0027140744,2.9077183E-4,-0.0014709635
2020-03-25 12:40:44,61874,0.0027140744,2.9077183E-4,-0.0014709635
2020-03-25 12:40:44,61874,0.0027140744,2.9077183E-4,-0.0014709635
2020-03-25 12:40:44,61874,0.0027140744,2.9077183E-4,-0.0014709635
2020-03-25 12:40:44,61874,0.0027140744,2.9077183E-4,-0.0014709635
2020-03-25 12:40:44,61874,0.0027140744,2.9077183E-4,-0.0014709635
2020-03-25 12:40:44,61874,0.0027140744,2.9077183E-4,-0.0014709635
2020-03-25 12:40:44,61874,0.0027140744,2.9077183E-4,-0.0014709635
2020-03-25 12:40:44,61874,0.0027140744,2.9077183E-4,-0.0014709635
2020-03-25 12:40:44,61874,0.0027140744,2.9077183E-4,-0.0014709635
2020-03-25 12:40:44,61874,0.0027140744,2.9077183E-4,-0.0014709635
2020-03-25 12:40:44,61874,0.0027140744,2.9077183E-4,-0.0014709635
2020-03-25 12:40:44,61874,0.0027140744,2.9077183E-4,-0.0014709635
2020-03-25 12:40:44,61874,0.0027140744,2.9077183E-4,-0.0014709635
2020-03-25 12:40:44,61900,-0.06387024,0.038775284,0.0028050933
2020-03-25 12:40:44,62000,-0.019277075,0.036942687,3.6163224E-4
2020-03-25 12:40:44,62100,-0.035770435,0.021671055,0.0028050933
2020-03-25 12:40:44,62200,0.010655322,-0.029030759,-2.49233E-4
2020-03-25 12:40:44,62301,0.020429166,0.043662205,-0.002081829
2020-03-25 12:40:44,62400,0.05280502,0.0015125023,-0.0045252894
2020-03-25 12:40:44,62500,-0.0082815,0.08336844,-2.49233E-4
2020-03-25 12:40:44,62600,0.010655322,0.08703364,0.0040268237
2020-03-25 12:40:44,62700,-0.008892366,0.046105668,3.6163224E-4
2020-03-25 12:40:44,62800,0.038755123,-0.11943882,-0.0033035593
2020-03-25 12:40:45,62900,0.060135406,-0.07606738,-0.0045252894
2020-03-25 12:40:45,63001,0.017985707,-0.09011728,-2.49233E-4
2020-03-25 12:40:45,63100,2.7061332E-4,0.2580759,-0.0033035593
2020-03-25 12:40:45,63200,-0.002783713,0.3252711,-0.003914424
2020-03-25 12:40:45,63300,0.008211861,-0.5940811,0.0034159585
2020-03-25 12:40:45,63400,0.00454667,0.17133304,0.0040268237
2020-03-25 12:40:45,63500,-0.03760303,-0.21778812,0.0040268237
2020-03-25 12:40:45,63601,-0.05104207,0.094364025,0.0034159585
2020-03-25 12:40:45,63701,0.020429166,0.13468112,-0.0045252894
2020-03-25 12:40:45,63800,-0.0015619824,0.24097168,-0.0026926938
2020-03-25 12:40:46,63900,-0.0033945781,0.19271332,-0.0026926938
2020-03-25 12:40:46,64000,0.056470215,-0.005817881,-0.002081829
2020-03-25 12:40:46,64100,0.13282837,-0.36500666,-0.022240382
2020-03-25 12:40:46,64202,-3.4025195E-4,0.28434312,-0.0033035593
2020-03-25 12:40:46,64301,0.003935805,0.23241957,-0.0014709635
2020-03-25 12:40:46,64400,0.0338682,-0.72786057,0.0076920153
2020-03-25 12:40:46,64500,8.8147854E-4,0.21531534,-0.003914424
2020-03-25 12:40:46,64600,2.7061332E-4,0.21653706,-0.003914424
2020-03-25 12:40:46,64700,-0.0021728477,0.2684606,-0.003914424
2020-03-25 12:40:46,64801,0.0033249394,-0.70586944,0.011968072
2020-03-25 12:40:47,64900,8.8147854E-4,0.17805254,-2.49233E-4
2020-03-25 12:40:47,65000,-9.5111714E-4,0.15850487,-2.49233E-4
2020-03-25 12:40:47,65100,-9.5111714E-4,0.19393505,-0.003914424
2020-03-25 12:40:47,65201,-0.0033945781,0.21470447,-0.0033035593
2020-03-25 12:40:47,65300,-0.0015619824,0.22325659,-0.0026926938
2020-03-25 12:40:47,65400,-0.04310082,0.1878264,-0.0045252894
2020-03-25 12:40:47,65501,-9.5111714E-4,0.21348274,-0.0045252894
2020-03-25 12:40:47,65600,-0.0015619824,0.1756091,-0.0026926938
2020-03-25 12:40:47,65701,-0.002783713,0.16461353,-8.600982E-4
2020-03-25 12:40:47,65800,-0.0021728477,0.14506584,-0.0033035593
2020-03-25 12:40:48,65900,-0.0363813,0.049159992,-0.0045252894
2020-03-25 12:40:48,66001,-0.03760303,-0.03513941,-0.003914424
2020-03-25 12:40:48,66100,0.011877053,-0.29658976,0.009524611
2020-03-25 12:40:48,66200,-0.04554428,0.101694405,-0.006968751
2020-03-25 12:40:48,66301,-0.03271611,0.12857248,-0.008190481
2020-03-25 12:40:48,66401,0.002103209,0.25502157,-0.005136155
2020-03-25 12:40:48,66500,-0.013168422,-0.3094179,3.6163224E-4
2020-03-25 12:40:48,66600,0.03020301,-0.44197568,0.002194228
2020-03-25 12:40:48,66700,-0.03943563,0.07664893,-0.005136155
2020-03-25 12:40:48,66800,-0.015001018,0.42667472,-0.0045252894
2020-03-25 12:40:49,67256,-0.040046494,-0.48107105,9.7249745E-4
2020-03-25 12:40:49,67256,-0.040046494,-0.48107105,9.7249745E-4
2020-03-25 12:40:49,67256,-0.040046494,-0.48107105,9.7249745E-4
2020-03-25 12:40:49,67256,-0.040046494,-0.48107105,9.7249745E-4
2020-03-25 12:40:49,67300,0.018596571,-0.16586457,0.0028050933
2020-03-25 12:40:49,67400,-0.027829187,0.22753264,-0.005136155
2020-03-25 12:40:49,67500,-0.014390153,-0.16586457,-0.0014709635
2020-03-25 12:40:49,67600,0.01615311,0.1316268,-0.0026926938
2020-03-25 12:40:49,67701,0.019207435,-0.041248064,-2.49233E-4
2020-03-25 12:40:49,67800,-0.030883515,-0.055297967,-0.003914424
2020-03-25 12:40:50,67900,-0.03760303,-0.028419895,-0.002081829
2020-03-25 12:40:50,68000,-0.015611883,0.026557978,-0.003914424
2020-03-25 12:40:50,68100,-0.03027265,-0.051021907,-0.0057470202
2020-03-25 12:40:50,68200,-0.026607458,-3.200934E-4,-0.0075796163
2020-03-25 12:40:50,68302,-0.05104207,-0.014369994,0.002194228
2020-03-25 12:40:50,68400,-0.07914187,-0.099891126,9.7249745E-4
2020-03-25 12:40:50,68501,0.032035608,-0.12982354,-0.0026926938
2020-03-25 12:40:50,68600,0.08090483,-0.17136237,-0.003914424
2020-03-25 12:40:50,68700,0.011877053,-0.1670863,-8.600982E-4
2020-03-25 12:40:50,68800,-0.053485528,-0.1530364,-0.0026926938
2020-03-25 12:40:51,68900,-0.016222747,0.135292,0.0028050933
2020-03-25 12:40:51,69000,-0.020498805,0.042440474,-0.0026926938
2020-03-25 12:40:51,69101,-0.014390153,-0.25566176,-0.005136155
2020-03-25 12:40:59,77280,-0.02110967,-0.12921266,-0.0045252894
2020-03-25 12:40:59,77280,-0.02110967,-0.12921266,-0.0045252894
2020-03-25 12:40:59,77280,-0.02110967,-0.12921266,-0.0045252894
2020-03-25 12:40:59,77280,-0.02110967,-0.12921266,-0.0045252894
2020-03-25 12:40:59,77280,-0.02110967,-0.12921266,-0.0045252894
2020-03-25 12:40:59,77280,-0.02110967,-0.12921266,-0.0045252894
2020-03-25 12:40:59,77280,-0.02110967,-0.12921266,-0.0045252894
2020-03-25 12:40:59,77280,-0.02110967,-0.12921266,-0.0045252894
2020-03-25 12:40:59,77280,-0.02110967,-0.12921266,-0.0045252894
2020-03-25 12:40:59,77280,-0.02110967,-0.12921266,-0.0045252894
2020-03-25 12:40:59,77280,-0.02110967,-0.12921266,-0.0045252894
2020-03-25 12:40:59,77280,-0.02110967,-0.12921266,-0.0045252894
2020-03-25 12:40:59,77280,-0.02110967,-0.12921266,-0.0045252894
2020-03-25 12:40:59,77280,-0.02110967,-0.12921266,-0.0045252894
2020-03-25 12:40:59,77280,-0.02110967,-0.12921266,-0.0045252894
2020-03-25 12:40:59,77280,-0.02110967,-0.12921266,-0.0045252894
2020-03-25 12:40:59,77280,-0.02110967,-0.12921266,-0.0045252894
2020-03-25 12:40:59,77280,-0.02110967,-0.12921266,-0.0045252894
2020-03-25 12:40:59,77280,-0.02110967,-0.12921266,-0.0045252894
2020-03-25 12:40:59,77280,-0.02110967,-0.12921266,-0.0045252894
2020-03-25 12:40:59,77280,-0.02110967,-0.12921266,-0.0045252894
2020-03-25 12:40:59,77280,-0.02110967,-0.12921266,-0.0045252894
2020-03-25 12:40:59,77280,-0.02110967,-0.12921266,-0.0045252894
2020-03-25 12:40:59,77280,-0.02110967,-0.12921266,-0.0045252894
2020-03-25 12:40:59,77280,-0.02110967,-0.12921266,-0.0045252894
2020-03-25 12:40:59,77280,-0.02110967,-0.12921266,-0.0045252894
2020-03-25 12:40:59,77280,-0.02110967,-0.12921266,-0.0045252894
2020-03-25 12:40:59,77280,-0.02110967,-0.12921266,-0.0045252894
2020-03-25 12:40:59,77280,-0.02110967,-0.12921266,-0.0045252894
2020-03-25 12:40:59,77280,-0.02110967,-0.12921266,-0.0045252894
2020-03-25 12:40:59,77280,-0.02110967,-0.12921266,-0.0045252894
2020-03-25 12:40:59,77280,-0.02110967,-0.12921266,-0.0045252894
2020-03-25 12:40:59,77280,-0.02110967,-0.12921266,-0.0045252894
2020-03-25 12:40:59,77280,-0.02110967,-0.12921266,-0.0045252894
2020-03-25 12:40:59,77280,-0.02110967,-0.12921266,-0.0045252894
2020-03-25 12:40:59,77280,-0.02110967,-0.12921266,-0.0045252894
2020-03-25 12:40:59,77280,-0.02110967,-0.12921266,-0.0045252894
2020-03-25 12:40:59,77280,-0.02110967,-0.12921266,-0.0045252894
2020-03-25 12:40:59,77280,-0.02110967,-0.12921266,-0.0045252894
2020-03-25 12:40:59,77280,-0.02110967,-0.12921266,-0.0045252894
2020-03-25 12:40:59,77280,-0.02110967,-0.12921266,-0.0045252894
2020-03-25 12:40:59,77280,-0.02110967,-0.12921266,-0.0045252894
2020-03-25 12:40:59,77280,-0.02110967,-0.12921266,-0.0045252894
2020-03-25 12:40:59,77280,-0.02110967,-0.12921266,-0.0045252894
2020-03-25 12:40:59,77280,-0.02110967,-0.12921266,-0.0045252894
2020-03-25 12:40:59,77280,-0.02110967,-0.12921266,-0.0045252894
2020-03-25 12:40:59,77280,-0.02110967,-0.12921266,-0.0045252894
2020-03-25 12:40:59,77280,-0.02110967,-0.12921266,-0.0045252894
2020-03-25 12:40:59,77280,-0.02110967,-0.12921266,-0.0045252894
2020-03-25 12:40:59,77280,-0.02110967,-0.12921266,-0.0045252894
2020-03-25 12:40:59,77280,-0.02110967,-0.12921266,-0.0045252894
2020-03-25 12:40:59,77280,-0.02110967,-0.12921266,-0.0045252894
2020-03-25 12:40:59,77280,-0.02110967,-0.12921266,-0.0045252894
2020-03-25 12:40:59,77280,-0.02110967,-0.12921266,-0.0045252894
2020-03-25 12:40:59,77280,-0.02110967,-0.12921266,-0.0045252894
2020-03-25 12:40:59,77280,-0.02110967,-0.12921266,-0.0045252894
2020-03-25 12:40:59,77280,-0.02110967,-0.12921266,-0.0045252894
2020-03-25 12:40:59,77280,-0.02110967,-0.12921266,-0.0045252894
2020-03-25 12:40:59,77280,-0.02110967,-0.12921266,-0.0045252894
2020-03-25 12:40:59,77280,-0.02110967,-0.12921266,-0.0045252894
2020-03-25 12:40:59,77280,-0.02110967,-0.12921266,-0.0045252894
2020-03-25 12:40:59,77280,-0.02110967,-0.12921266,-0.0045252894
2020-03-25 12:40:59,77280,-0.02110967,-0.12921266,-0.0045252894
2020-03-25 12:40:59,77280,-0.02110967,-0.12921266,-0.0045252894
2020-03-25 12:40:59,77280,-0.02110967,-0.12921266,-0.0045252894
2020-03-25 12:40:59,77280,-0.02110967,-0.12921266,-0.0045252894
2020-03-25 12:40:59,77280,-0.02110967,-0.12921266,-0.0045252894
2020-03-25 12:40:59,77280,-0.02110967,-0.12921266,-0.0045252894
2020-03-25 12:40:59,77280,-0.02110967,-0.12921266,-0.0045252894
2020-03-25 12:40:59,77280,-0.02110967,-0.12921266,-0.0045252894
2020-03-25 12:40:59,77280,-0.02110967,-0.12921266,-0.0045252894
2020-03-25 12:40:59,77280,-0.02110967,-0.12921266,-0.0045252894
2020-03-25 12:40:59,77280,-0.02110967,-0.12921266,-0.0045252894
2020-03-25 12:40:59,77280,-0.02110967,-0.12921266,-0.0045252894
2020-03-25 12:40:59,77280,-0.02110967,-0.12921266,-0.0045252894
2020-03-25 12:40:59,77280,-0.02110967,-0.12921266,-0.0045252894
2020-03-25 12:40:59,77280,-0.02110967,-0.12921266,-0.0045252894
2020-03-25 12:40:59,77280,-0.02110967,-0.12921266,-0.0045252894
2020-03-25 12:40:59,77280,-0.02110967,-0.12921266,-0.0045252894
2020-03-25 12:40:59,77280,-0.02110967,-0.12921266,-0.0045252894
2020-03-25 12:40:59,77280,-0.02110967,-0.12921266,-0.0045252894
2020-03-25 12:40:59,77301,0.033257335,-0.04185893,0.002194228
2020-03-25 12:40:59,77400,0.07052012,-0.06934787,-0.002081829
2020-03-25 12:40:59,77500,0.08090483,0.2635737,-0.0057470202
2020-03-25 12:40:59,77600,0.05708108,-0.1444843,3.6163224E-4
2020-03-25 12:40:59,77701,0.042420316,0.035110094,3.6163224E-4
2020-03-25 12:40:59,77800,0.058913678,0.044883933,-0.0026926938
2020-03-25 12:41:00,77900,0.044863775,0.0076211547,-0.0014709635
2020-03-25 12:41:00,78000,0.041198585,-0.03697201,-8.600982E-4
2020-03-25 12:41:00,78100,0.055248484,0.00945375,-0.0026926938
2020-03-25 12:41:00,78200,0.009433592,0.0754272,-2.49233E-4
2020-03-25 12:41:00,78301,0.044863775,-0.04918931,-0.002081829
2020-03-25 12:41:00,78400,0.010044457,0.10291613,-0.003914424
2020-03-25 12:41:00,78500,-0.012557557,-0.063850075,0.002194228
2020-03-25 12:41:00,78600,-0.07608754,0.057712104,-0.0014709635
2020-03-25 12:41:00,78700,-0.29599902,0.03388836,-2.49233E-4
2020-03-25 12:41:00,78801,-0.28317088,0.021671055,-0.0033035593
2020-03-25 12:41:01,78900,-0.26789925,-0.06629354,-0.010023077
2020-03-25 12:41:01,79000,-0.2226952,-0.0027635542,-0.002081829
2020-03-25 12:41:01,79100,-0.2758405,0.06870768,0.00830288
2020-03-25 12:41:01,79200,-0.423059,-0.011315668,-0.006968751
2020-03-25 12:41:01,79300,-0.34181392,0.057712104,-0.0014709635
2020-03-25 12:41:01,79401,-0.2666775,-0.10477805,0.005248554
2020-03-25 12:41:01,79500,-0.1927628,0.062599026,0.005248554
2020-03-25 12:41:01,79600,-0.20559098,-0.013148264,0.0040268237
2020-03-25 12:41:09,87432,-0.40106785,-0.1829688,0.0046376893
2020-03-25 12:41:09,87432,-0.40106785,-0.1829688,0.0046376893
2020-03-25 12:41:09,87432,-0.40106785,-0.1829688,0.0046376893
2020-03-25 12:41:09,87432,-0.40106785,-0.1829688,0.0046376893
2020-03-25 12:41:09,87432,-0.40106785,-0.1829688,0.0046376893
2020-03-25 12:41:09,87432,-0.40106785,-0.1829688,0.0046376893
2020-03-25 12:41:09,87432,-0.40106785,-0.1829688,0.0046376893
2020-03-25 12:41:09,87432,-0.40106785,-0.1829688,0.0046376893
2020-03-25 12:41:09,87432,-0.40106785,-0.1829688,0.0046376893
2020-03-25 12:41:09,87432,-0.40106785,-0.1829688,0.0046376893
2020-03-25 12:41:09,87432,-0.40106785,-0.1829688,0.0046376893
2020-03-25 12:41:09,87432,-0.40106785,-0.1829688,0.0046376893
2020-03-25 12:41:09,87432,-0.40106785,-0.1829688,0.0046376893
2020-03-25 12:41:09,87432,-0.40106785,-0.1829688,0.0046376893
2020-03-25 12:41:09,87432,-0.40106785,-0.1829688,0.0046376893
2020-03-25 12:41:09,87432,-0.40106785,-0.1829688,0.0046376893
2020-03-25 12:41:09,87432,-0.40106785,-0.1829688,0.0046376893
2020-03-25 12:41:09,87432,-0.40106785,-0.1829688,0.0046376893
2020-03-25 12:41:09,87432,-0.40106785,-0.1829688,0.0046376893
2020-03-25 12:41:09,87432,-0.40106785,-0.1829688,0.0046376893
2020-03-25 12:41:09,87432,-0.40106785,-0.1829688,0.0046376893
2020-03-25 12:41:09,87432,-0.40106785,-0.1829688,0.0046376893
2020-03-25 12:41:09,87432,-0.40106785,-0.1829688,0.0046376893
2020-03-25 12:41:09,87432,-0.40106785,-0.1829688,0.0046376893
2020-03-25 12:41:09,87432,-0.40106785,-0.1829688,0.0046376893
2020-03-25 12:41:09,87432,-0.40106785,-0.1829688,0.0046376893
2020-03-25 12:41:09,87432,-0.40106785,-0.1829688,0.0046376893
2020-03-25 12:41:09,87432,-0.40106785,-0.1829688,0.0046376893
2020-03-25 12:41:09,87432,-0.40106785,-0.1829688,0.0046376893
2020-03-25 12:41:09,87432,-0.40106785,-0.1829688,0.0046376893
2020-03-25 12:41:09,87432,-0.40106785,-0.1829688,0.0046376893
2020-03-25 12:41:09,87432,-0.40106785,-0.1829688,0.0046376893
2020-03-25 12:41:09,87432,-0.40106785,-0.1829688,0.0046376893
2020-03-25 12:41:09,87432,-0.40106785,-0.1829688,0.0046376893
2020-03-25 12:41:09,87432,-0.40106785,-0.1829688,0.0046376893
2020-03-25 12:41:09,87432,-0.40106785,-0.1829688,0.0046376893
2020-03-25 12:41:09,87432,-0.40106785,-0.1829688,0.0046376893
2020-03-25 12:41:09,87432,-0.40106785,-0.1829688,0.0046376893
2020-03-25 12:41:09,87432,-0.40106785,-0.1829688,0.0046376893
2020-03-25 12:41:09,87432,-0.40106785,-0.1829688,0.0046376893
2020-03-25 12:41:09,87432,-0.40106785,-0.1829688,0.0046376893
2020-03-25 12:41:09,87432,-0.40106785,-0.1829688,0.0046376893
2020-03-25 12:41:09,87432,-0.40106785,-0.1829688,0.0046376893
2020-03-25 12:41:09,87432,-0.40106785,-0.1829688,0.0046376893
2020-03-25 12:41:09,87432,-0.40106785,-0.1829688,0.0046376893
2020-03-25 12:41:09,87432,-0.40106785,-0.1829688,0.0046376893
2020-03-25 12:41:09,87432,-0.40106785,-0.1829688,0.0046376893
2020-03-25 12:41:09,87432,-0.40106785,-0.1829688,0.0046376893
2020-03-25 12:41:09,87432,-0.40106785,-0.1829688,0.0046376893
2020-03-25 12:41:09,87432,-0.40106785,-0.1829688,0.0046376893
2020-03-25 12:41:09,87432,-0.40106785,-0.1829688,0.0046376893
2020-03-25 12:41:09,87432,-0.40106785,-0.1829688,0.0046376893
2020-03-25 12:41:09,87432,-0.40106785,-0.1829688,0.0046376893
2020-03-25 12:41:09,87432,-0.40106785,-0.1829688,0.0046376893
2020-03-25 12:41:09,87432,-0.40106785,-0.1829688,0.0046376893
2020-03-25 12:41:09,87432,-0.40106785,-0.1829688,0.0046376893
2020-03-25 12:41:09,87432,-0.40106785,-0.1829688,0.0046376893
2020-03-25 12:41:09,87432,-0.40106785,-0.1829688,0.0046376893
2020-03-25 12:41:09,87432,-0.40106785,-0.1829688,0.0046376893
2020-03-25 12:41:09,87432,-0.40106785,-0.1829688,0.0046376893
2020-03-25 12:41:09,87432,-0.40106785,-0.1829688,0.0046376893
2020-03-25 12:41:09,87432,-0.40106785,-0.1829688,0.0046376893
2020-03-25 12:41:09,87432,-0.40106785,-0.1829688,0.0046376893
2020-03-25 12:41:09,87432,-0.40106785,-0.1829688,0.0046376893
2020-03-25 12:41:09,87432,-0.40106785,-0.1829688,0.0046376893
2020-03-25 12:41:09,87432,-0.40106785,-0.1829688,0.0046376893
2020-03-25 12:41:09,87432,-0.40106785,-0.1829688,0.0046376893
2020-03-25 12:41:09,87432,-0.40106785,-0.1829688,0.0046376893
2020-03-25 12:41:09,87432,-0.40106785,-0.1829688,0.0046376893
2020-03-25 12:41:09,87432,-0.40106785,-0.1829688,0.0046376893
2020-03-25 12:41:09,87432,-0.40106785,-0.1829688,0.0046376893
2020-03-25 12:41:09,87432,-0.40106785,-0.1829688,0.0046376893
2020-03-25 12:41:09,87432,-0.40106785,-0.1829688,0.0046376893
2020-03-25 12:41:09,87432,-0.40106785,-0.1829688,0.0046376893
2020-03-25 12:41:09,87433,-0.40106785,-0.1829688,0.0046376893
2020-03-25 12:41:09,87433,-0.40106785,-0.1829688,0.0046376893
2020-03-25 12:41:09,87433,-0.40106785,-0.1829688,0.0046376893
2020-03-25 12:41:09,87433,-0.40106785,-0.1829688,0.0046376893
2020-03-25 12:41:09,87500,0.8903013,0.16522437,-0.058892295
2020-03-25 12:41:09,87600,0.986818,-0.052854504,-0.06072489
2020-03-25 12:41:09,87700,1.0869999,0.05343605,-0.07538566
2020-03-25 12:41:09,87800,1.1987882,-0.2025165,-0.077829115
2020-03-25 12:41:10,87900,0.80844533,0.0063994243,-0.048507586
2020-03-25 12:41:10,88000,0.54821676,0.0039559635,-0.035679415
2020-03-25 12:41:10,88100,0.3026489,0.027779708,-0.021629516
2020-03-25 12:41:10,88201,0.12122193,0.012508077,-0.008190481
2020-03-25 12:41:10,88300,-0.10601994,-0.10966497,0.005248554
2020-03-25 12:41:10,88400,-0.66740507,0.016784133,0.04861999
2020-03-25 12:41:10,88500,-1.1261649,0.14934188,0.093824014
2020-03-25 12:41:10,88600,-1.3228636,0.35337088,0.087715365
2020-03-25 12:41:10,88700,-1.3509632,-0.040026333,0.026017973
2020-03-25 12:41:10,88801,-1.3375243,-0.0064287456,-0.012466538
2020-03-25 12:41:11,88900,-1.2715508,0.16766785,-0.035679415
2020-03-25 12:41:11,89000,-1.0528611,-0.13654305,-0.04789672
2020-03-25 12:41:11,89100,-1.4047195,-0.0406372,-0.057670567
2020-03-25 12:41:11,89200,-1.3356917,0.2702932,-0.04362067
2020-03-25 12:41:11,89301,-1.1811428,0.32099503,-0.07233133
2020-03-25 12:41:11,89400,-0.8011846,0.30694512,-0.06194662
2020-03-25 12:41:11,89500,-0.9459596,0.23608476,-0.106539786
2020-03-25 12:41:11,89600,-0.98627675,0.039386146,-0.121200554
2020-03-25 12:41:11,89701,-0.38152018,-0.26299214,-0.042398933
2020-03-25 12:41:11,89800,-0.5660015,-1.2721415,0.00830288
2020-03-25 12:41:12,89900,-0.43100023,-0.52016646,0.030294029
2020-03-25 12:41:12,90000,-0.3741898,-0.087062955,0.045565657
2020-03-25 12:41:12,90100,-0.3809093,0.3967423,0.046787392
2020-03-25 12:41:12,90201,-0.47864774,0.64414275,0.033348355
2020-03-25 12:41:12,90300,-0.5666123,0.103527,0.040678736
2020-03-25 12:41:12,90400,-0.6918397,0.09802921,0.03273749
2020-03-25 12:41:12,90500,-0.8390582,0.28189966,-0.003914424
2020-03-25 12:41:12,90601,-1.130441,0.21653706,-0.03018163
2020-03-25 12:41:12,90700,-1.0882913,0.44133547,-0.09982026
2020-03-25 12:41:13,91229,-1.0882913,0.44133547,-0.09982026
2020-03-25 12:41:13,91229,-1.0882913,0.44133547,-0.09982026
2020-03-25 12:41:13,91229,-1.0882913,0.44133547,-0.09982026
2020-03-25 12:41:13,91229,-1.0882913,0.44133547,-0.09982026
2020-03-25 12:41:13,91229,-1.0882913,0.44133547,-0.09982026
2020-03-25 12:41:13,91301,-0.50980186,-0.13776477,-0.07721826
2020-03-25 12:41:13,91400,-0.35891816,0.11268998,-0.058892295
2020-03-25 12:41:13,91500,-0.25384933,0.189659,-0.04362067
2020-03-25 12:41:13,91600,-0.049820334,-0.10172372,-0.0063578854
2020-03-25 12:41:13,91713,0.006379266,-0.25444004,0.0040268237
2020-03-25 12:41:13,91814,0.17742154,-0.2886485,0.022963647
2020-03-25 12:41:14,91900,0.068076655,-0.16769718,0.00708115
2020-03-25 12:41:14,92013,0.04425291,-0.1444843,0.0046376893
2020-03-25 12:41:14,92113,0.091289535,-0.24588792,0.00830288
2020-03-25 12:41:14,92213,0.3014272,-0.45052776,0.009524611
2020-03-25 12:41:14,92313,0.44070446,-0.69365215,-0.008801347
2020-03-25 12:41:14,92413,0.58975554,-0.65150243,-0.08943556
2020-03-25 12:41:14,92500,0.75285655,-0.5995789,-0.15540901
2020-03-25 12:41:14,92600,0.8163866,-0.40165856,-0.16945891
2020-03-25 12:41:14,92700,0.8182192,-0.2287837,-0.2207716
2020-03-25 12:41:14,92800,0.6789419,0.039386146,-0.20855428
2020-03-25 12:41:15,92901,0.6215206,0.47554395,-0.18045448
2020-03-25 12:41:15,93000,0.55615795,0.45599625,-0.11936796
2020-03-25 12:41:15,93100,0.57509476,0.13101593,-0.08821383
2020-03-25 12:41:15,93200,0.5592123,-0.23183803,-0.11081584
2020-03-25 12:41:15,93301,0.56043404,-0.23244888,-0.10776151
2020-03-25 12:41:15,93400,0.5372212,-0.42914748,-0.1114267
2020-03-25 12:41:15,93500,0.45658696,-0.008872206,-0.12364401
2020-03-25 12:41:15,93600,0.2922642,0.38391414,-0.08149431
2020-03-25 12:41:15,93700,0.2696622,0.2739584,-0.057670567
2020-03-25 12:41:15,93800,0.1181676,-0.029030759,-0.029570764
2020-03-25 12:41:16,93900,0.049750697,-0.60446584,-2.49233E-4
2020-03-25 12:41:16,94001,0.12733059,-0.7614582,-0.024072977
2020-03-25 12:41:16,94100,0.10350683,-0.76756686,-0.03262509
2020-03-25 12:41:16,94200,0.06746579,-1.0736103,-0.016742595
2020-03-25 12:41:16,94300,0.057691947,-1.30635,-0.006968751
2020-03-25 12:41:16,94400,0.056470215,-1.4566228,-0.009412211
2020-03-25 12:41:16,94501,-0.02110967,-1.2684764,0.0571721
2020-03-25 12:41:16,94600,-0.052874666,-1.3619387,0.10909564
2020-03-25 12:41:16,94700,-0.009503231,-1.2422091,0.06511335
2020-03-25 12:41:16,94800,-0.024163995,-1.691195,0.0871045
2020-03-25 12:41:17,94900,0.0033249394,-3.019216,0.26242283
2020-03-25 12:41:17,95001,-0.0033945781,0.0045668287,-0.0014709635
2020-03-25 12:41:17,95100,2.7061332E-4,0.0021233675,-0.002081829
2020-03-25 12:41:17,95200,0.0014923437,0.0021233675,-8.600982E-4
2020-03-25 12:41:17,95300,0.00454667,2.9077183E-4,-0.0014709635
2020-03-25 12:41:17,95400,0.0027140744,9.016371E-4,-8.600982E-4
2020-03-25 12:41:17,95501,8.8147854E-4,0.0015125023,-2.49233E-4
2020-03-25 12:41:17,95600,-9.5111714E-4,9.016371E-4,-0.0014709635
2020-03-25 12:41:17,95700,0.0014923437,-3.200934E-4,0.002194228
2020-03-25 12:41:17,95800,2.7061332E-4,-3.200934E-4,-0.0026926938
2020-03-25 12:41:18,95901,0.0014923437,-3.200934E-4,-2.49233E-4
2020-03-25 12:41:18,96000,0.0014923437,-3.200934E-4,-0.0014709635
2020-03-25 12:41:18,96100,0.003935805,-0.00459615,-2.49233E-4
2020-03-25 12:41:18,96201,2.7061332E-4,0.002734233,9.7249745E-4
2020-03-25 12:41:18,96300,-3.4025195E-4,-3.200934E-4,-2.49233E-4
2020-03-25 12:41:18,96400,0.0014923437,0.002734233,9.7249745E-4
2020-03-25 12:41:18,96500,-0.002783713,0.002734233,-2.49233E-4
2020-03-25 12:41:18,96601,-0.0015619824,2.9077183E-4,9.7249745E-4
2020-03-25 12:41:18,96700,8.8147854E-4,0.0021233675,-8.600982E-4
2020-03-25 12:41:18,96800,-0.004005444,9.016371E-4,-2.49233E-4
2020-03-25 12:41:19,96900,-0.002783713,-3.200934E-4,0.0015833627
2020-03-25 12:41:19,97000,-0.0015619824,-9.309586E-4,3.6163224E-4
2020-03-25 12:41:19,97101,-0.0015619824,2.9077183E-4,-0.002081829
2020-03-25 12:41:19,97200,0.0014923437,0.0015125023,-0.0014709635
2020-03-25 12:41:19,97300,-0.0015619824,-3.200934E-4,0.0015833627
2020-03-25 12:41:19,97401,0.0014923437,0.0015125023,3.6163224E-4
2020-03-25 12:41:19,97500,2.7061332E-4,-3.200934E-4,-0.0014709635
2020-03-25 12:41:19,97600,2.7061332E-4,-3.200934E-4,-0.0014709635
2020-03-25 12:41:19,97700,2.7061332E-4,-3.200934E-4,-0.0014709635
2020-03-25 12:41:19,97800,2.7061332E-4,-3.200934E-4,-0.0014709635
2020-03-25 12:41:20,97901,2.7061332E-4,-3.200934E-4,-0.0014709635
2020-03-25 12:41:20,98000,2.7061332E-4,-3.200934E-4,-0.0014709635
2020-03-25 12:41:20,98100,2.7061332E-4,-3.200934E-4,-0.0014709635
2020-03-25 12:41:20,98200,2.7061332E-4,-3.200934E-4,-0.0014709635
2020-03-25 12:41:20,98300,2.7061332E-4,-3.200934E-4,-0.0014709635
2020-03-25 12:41:20,98401,2.7061332E-4,-3.200934E-4,-0.0014709635
2020-03-25 12:41:20,98500,2.7061332E-4,-3.200934E-4,-0.0014709635
2020-03-25 12:41:21,99210,2.7061332E-4,-3.200934E-4,-0.0014709635
2020-03-25 12:41:21,99210,2.7061332E-4,-3.200934E-4,-0.0014709635
2020-03-25 12:41:21,99210,2.7061332E-4,-3.200934E-4,-0.0014709635
2020-03-25 12:41:21,99210,2.7061332E-4,-3.200934E-4,-0.0014709635
2020-03-25 12:41:21,99210,2.7061332E-4,-3.200934E-4,-0.0014709635
2020-03-25 12:41:21,99210,2.7061332E-4,-3.200934E-4,-0.0014709635
2020-03-25 12:41:21,99210,2.7061332E-4,-3.200934E-4,-0.0014709635
2020-03-25 12:41:21,99300,2.7061332E-4,-3.200934E-4,-0.0014709635
2020-03-25 12:41:21,99400,2.7061332E-4,-3.200934E-4,-0.0014709635
2020-03-25 12:41:21,99500,2.7061332E-4,-3.200934E-4,-0.0014709635
2020-03-25 12:41:21,99612,2.7061332E-4,-3.200934E-4,-0.0014709635
2020-03-25 12:41:21,99700,2.7061332E-4,-3.200934E-4,-0.0014709635
2020-03-25 12:41:21,99801,2.7061332E-4,-3.200934E-4,-0.0014709635
2020-03-25 12:41:22,99900,2.7061332E-4,-3.200934E-4,-0.0014709635
2020-03-25 12:41:22,100000,2.7061332E-4,-3.200934E-4,-0.0014709635
2020-03-25 12:41:22,100101,2.7061332E-4,-3.200934E-4,-0.0014709635
2020-03-25 12:41:22,100200,2.7061332E-4,-3.200934E-4,-0.0014709635
2020-03-25 12:41:22,100300,2.7061332E-4,-3.200934E-4,-0.0014709635
2020-03-25 12:41:22,100400,2.7061332E-4,-3.200934E-4,-0.0014709635
2020-03-25 12:41:22,100500,2.7061332E-4,-3.200934E-4,-0.0014709635
2020-03-25 12:41:22,100600,2.7061332E-4,-3.200934E-4,-0.0014709635
2020-03-25 12:41:22,100700,2.7061332E-4,-3.200934E-4,-0.0014709635
2020-03-25 12:41:22,100801,2.7061332E-4,-3.200934E-4,-0.0014709635
2020-03-25 12:41:23,100900,2.7061332E-4,-3.200934E-4,-0.0014709635
2020-03-25 12:41:23,101000,2.7061332E-4,-3.200934E-4,-0.0014709635
2020-03-25 12:41:23,101100,2.7061332E-4,-3.200934E-4,-0.0014709635
2020-03-25 12:41:23,101200,2.7061332E-4,-3.200934E-4,-0.0014709635
2020-03-25 12:41:23,101301,2.7061332E-4,-3.200934E-4,-0.0014709635
2020-03-25 12:41:23,101400,2.7061332E-4,-3.200934E-4,-0.0014709635
2020-03-25 12:41:23,101500,2.7061332E-4,-3.200934E-4,-0.0014709635
2020-03-25 12:41:23,101600,2.7061332E-4,-3.200934E-4,-0.0014709635
2020-03-25 12:41:23,101701,2.7061332E-4,-3.200934E-4,-0.0014709635
2020-03-25 12:41:23,101800,2.7061332E-4,-3.200934E-4,-0.0014709635
2020-03-25 12:41:24,101900,2.7061332E-4,-3.200934E-4,-0.0014709635
2020-03-25 12:41:24,102001,2.7061332E-4,-3.200934E-4,-0.0014709635
2020-03-25 12:41:24,102100,2.7061332E-4,-3.200934E-4,-0.0014709635
2020-03-25 12:41:24,102200,2.7061332E-4,-3.200934E-4,-0.0014709635
2020-03-25 12:41:24,102300,2.7061332E-4,-3.200934E-4,-0.0014709635
2020-03-25 12:41:24,102404,2.7061332E-4,-3.200934E-4,-0.0014709635
2020-03-25 12:41:24,102503,-9.5111714E-4,-0.009483072,-0.003914424
2020-03-25 12:41:24,102605,-3.4025195E-4,0.010675481,-0.0014709635
2020-03-25 12:41:24,102700,-0.0052271737,0.005177694,9.7249745E-4
2020-03-25 12:41:24,102801,2.7061332E-4,0.11024652,3.6163224E-4
2020-03-25 12:41:25,102900,0.002103209,0.011286346,-8.600982E-4
2020-03-25 12:41:25,103000,0.0014923437,0.0021233675,0.002194228
2020-03-25 12:41:25,103100,8.8147854E-4,9.016371E-4,9.7249745E-4
2020-03-25 12:41:25,103200,8.8147854E-4,0.0021233675,0.002194228
2020-03-25 12:41:25,103300,-0.004005444,0.0076211547,-8.600982E-4
2020-03-25 12:41:25,103400,-0.002783713,-0.0027635542,-2.49233E-4
2020-03-25 12:41:25,103500,0.0027140744,9.016371E-4,-2.49233E-4
2020-03-25 12:41:25,103600,-9.5111714E-4,0.0039559635,-0.0014709635
2020-03-25 12:41:25,103701,-3.4025195E-4,-0.0015418238,-2.49233E-4
2020-03-25 12:41:25,103800,-0.0046163085,9.016371E-4,9.7249745E-4
2020-03-25 12:41:26,103900,-3.4025195E-4,9.016371E-4,0.0015833627
